{
  "$schema": "https://raw.githubusercontent.com/microsoft/vcpkg-tool/main/docs/vcpkg-configuration.schema.json",
  "default-registry": {
    "kind": "git",
    "repository": "https://github.com/microsoft/vcpkg",
    "baseline": "c6928dfb9eb7f333f988d2ce70d1e771b7606849"
  },
  "registries": [
    {
      "kind": "git",
      "repository": "https://gitlab.com/kicad/packaging/kicad-vcpkg-registry.git",
      "baseline": "fa0646eb07954a4851a090d8e167bb5848b8095b",
      "packages": [
        "glew",
        "python3",
        "opencascade",
        "wxpython",
        "wxwidgets",
        "ngspice"
      ]
    }
  ]
}
